CS120B/CS120B/Homework/Homework1/Question2.vcd
$date
	04/12/13 11:50:16
$end
$version
	RIMS 2.3
$end
$timescale
	1 ms
$end
$scope module RIMS $end
$var wire 1 *TMR TIMER_ISR $end
$var wire 1 *A0 A0 $end
$var wire 1 *A1 A1 $end
$var wire 1 *A2 A2 $end
$var wire 1 *A3 A3 $end
$var wire 1 *A4 A4 $end
$var wire 1 *A5 A5 $end
$var wire 1 *A6 A6 $end
$var wire 1 *A7 A7 $end
$var wire 1 *B0 B0 $end
$var wire 1 *B1 B1 $end
$var wire 1 *B2 B2 $end
$var wire 1 *B3 B3 $end
$var wire 1 *B4 B4 $end
$var wire 1 *B5 B5 $end
$var wire 1 *B6 B6 $end
$var wire 1 *B7 B7 $end
$upscope $end
$enddefinitions $end

#0
$dumpvars
b0 *TMR
b0 *A0
b0 *A1
b0 *A2
b0 *A3
b0 *A4
b0 *A5
b0 *A6
b0 *A7
b0 *B0
b0 *B1
b0 *B2
b0 *B3
b0 *B4
b0 *B5
b0 *B6
b0 *B7
$end
#5951
b1 *A0
#5951
b1 *A0
#6242
b1 *B0
#7201
b0 *A0
#7201
b0 *A0
#8001
b1 *A7
#8001
b1 *A7
#10251
b0 *A7
#10251
b0 *A7
#12801
b1 *A7
#12801
b1 *A7
#13701
b1 *A0
#13701
b1 *A0
#15501
b0 *A0
#15501
b0 *A0
#16651
b0 *A7
#16651
b0 *A7
#18051
b1 *A3
#18051
b1 *A3
#18951
b1 *A4
#18951
b1 *A4
#19316
b0 *B0
#19316
b1 *B1
#20201
b0 *A4
#20201
b0 *A4
#21451
b0 *A3
#21451
b0 *A3
#24551
b1 *A2
#24551
b1 *A2
#25201
b1 *A1
#25201
b1 *A1
#26151
b1 *A5
#26151
b1 *A5
#26751
b1 *A6
#26751
b1 *A6
#27451
b0 *A6
#27451
b0 *A6
#27851
b0 *A5
#27851
b0 *A5
#28301
b0 *A2
#28301
b0 *A2
#28801
b0 *A1
#28801
b0 *A1
#31001
b1 *A0
#31001
b1 *A0
#31801
b1 *A1
#31801
b1 *A1
#32201
b1 *A2
#32201
b1 *A2
#32444
b1 *B0
#32601
b1 *A3
#32601
b1 *A3
#32966
b0 *B0
#32966
b0 *B1
#32966
b1 *B2
#34101
b1 *A6
#34101
b1 *A6
#34651
b1 *A7
#34651
b1 *A7
#5951
b1 *A0
#5951
b1 *A0
#6242
b1 *B0
#7201
b0 *A0
#7201
b0 *A0
#8001
b1 *A7
#8001
b1 *A7
#10251
b0 *A7
#10251
b0 *A7
#12801
b1 *A7
#12801
b1 *A7
#13701
b1 *A0
#13701
b1 *A0
#15501
b0 *A0
#15501
b0 *A0
#16651
b0 *A7
#16651
b0 *A7
#18051
b1 *A3
#18051
b1 *A3
#18951
b1 *A4
#18951
b1 *A4
#19316
b0 *B0
#19316
b1 *B1
#20201
b0 *A4
#20201
b0 *A4
#21451
b0 *A3
#21451
b0 *A3
#24551
b1 *A2
#24551
b1 *A2
#25201
b1 *A1
#25201
b1 *A1
#26151
b1 *A5
#26151
b1 *A5
#26751
b1 *A6
#26751
b1 *A6
#27451
b0 *A6
#27451
b0 *A6
#27851
b0 *A5
#27851
b0 *A5
#28301
b0 *A2
#28301
b0 *A2
#28801
b0 *A1
#28801
b0 *A1
#31001
b1 *A0
#31001
b1 *A0
#31801
b1 *A1
#31801
b1 *A1
#32201
b1 *A2
#32201
b1 *A2
#32444
b1 *B0
#32601
b1 *A3
#32601
b1 *A3
#32966
b0 *B0
#32966
b0 *B1
#32966
b1 *B2
#34101
b1 *A6
#34101
b1 *A6
#34651
b1 *A7
#34651
b1 *A7
