CS120B/CS120B/Homework/Homework1/Question3.vcd
$date
	04/12/13 13:09:09
$end
$version
	RIMS 2.3
$end
$timescale
	1 ms
$end
$scope module RIMS $end
$var wire 1 *TMR TIMER_ISR $end
$var wire 1 *A0 A0 $end
$var wire 1 *A1 A1 $end
$var wire 1 *A2 A2 $end
$var wire 1 *A3 A3 $end
$var wire 1 *A4 A4 $end
$var wire 1 *A5 A5 $end
$var wire 1 *A6 A6 $end
$var wire 1 *A7 A7 $end
$var wire 1 *B0 B0 $end
$var wire 1 *B1 B1 $end
$var wire 1 *B2 B2 $end
$var wire 1 *B3 B3 $end
$var wire 1 *B4 B4 $end
$var wire 1 *B5 B5 $end
$var wire 1 *B6 B6 $end
$var wire 1 *B7 B7 $end
$upscope $end
$enddefinitions $end

#0
$dumpvars
b0 *TMR
b0 *A0
b0 *A1
b0 *A2
b0 *A3
b0 *A4
b0 *A5
b0 *A6
b0 *A7
b0 *B0
b0 *B1
b0 *B2
b0 *B3
b0 *B4
b0 *B5
b0 *B6
b0 *B7
$end
#62
b1 *B0
#623
b0 *A0
#623
b0 *A0
#854
b1 *A0
#854
b1 *A0
#883
b0 *B0
#883
b1 *B1
#1046
b0 *A0
#1046
b0 *A0
#1234
b1 *A0
#1234
b1 *A0
#1266
b1 *B0
#1403
b0 *A0
#1403
b0 *A0
#1550
b1 *A0
#1550
b1 *A0
#1575
b0 *B0
#1575
b0 *B1
#1575
b1 *B2
#1847
b0 *A0
#1847
b0 *A0
#1997
b1 *A0
#1997
b1 *A0
#2024
b1 *B0
#2327
b0 *A0
#2327
b0 *A0
#2486
b1 *A0
#2486
b1 *A0
#2501
b0 *B0
#2501
b1 *B1
#2646
b0 *A0
#2646
b0 *A0
#2830
b1 *A0
#2830
b1 *A0
#2856
b1 *B0
#3006
b0 *A0
#3006
b0 *A0
#3161
b1 *A0
#3161
b1 *A0
#3188
b0 *B0
#3188
b0 *B1
#3188
b0 *B2
#3188
b1 *B3
#3329
b0 *A0
#3329
b0 *A0
#3491
b1 *A0
#3491
b1 *A0
#3520
b1 *B0
#3644
b0 *A0
#3644
b0 *A0
#3818
b1 *A0
#3818
b1 *A0
#3847
b0 *B0
#3847
b1 *B1
#4154
b0 *A0
#4154
b0 *A0
#60
bOutput pins should never be read *Error
#62
b1 *B0
#623
b0 *A0
#623
b0 *A0
#854
b1 *A0
#854
b1 *A0
#881
bOutput pins should never be read *Error
#883
b0 *B0
#883
b1 *B1
#1046
b0 *A0
#1046
b0 *A0
#1234
b1 *A0
#1234
b1 *A0
#1264
bOutput pins should never be read *Error
#1266
b1 *B0
#1403
b0 *A0
#1403
b0 *A0
#1550
b1 *A0
#1550
b1 *A0
#1573
bOutput pins should never be read *Error
#1575
b0 *B0
#1575
b0 *B1
#1575
b1 *B2
#1847
b0 *A0
#1847
b0 *A0
#1997
b1 *A0
#1997
b1 *A0
#2022
bOutput pins should never be read *Error
#2024
b1 *B0
#2327
b0 *A0
#2327
b0 *A0
#2486
b1 *A0
#2486
b1 *A0
#2499
bOutput pins should never be read *Error
#2501
b0 *B0
#2501
b1 *B1
#2646
b0 *A0
#2646
b0 *A0
#2830
b1 *A0
#2830
b1 *A0
#2854
bOutput pins should never be read *Error
#2856
b1 *B0
#3006
b0 *A0
#3006
b0 *A0
#3161
b1 *A0
#3161
b1 *A0
#3186
bOutput pins should never be read *Error
#3188
b0 *B0
#3188
b0 *B1
#3188
b0 *B2
#3188
b1 *B3
#3329
b0 *A0
#3329
b0 *A0
#3491
b1 *A0
#3491
b1 *A0
#3518
bOutput pins should never be read *Error
#3520
b1 *B0
#3644
b0 *A0
#3644
b0 *A0
#3818
b1 *A0
#3818
b1 *A0
#3845
bOutput pins should never be read *Error
#3847
b0 *B0
#3847
b1 *B1
#4154
b0 *A0
#4154
b0 *A0
