CS120B/CS120B/Homework/Homework2/HW2Q2.vcd
$date
	04/27/13 13:32:20
$end
$version
	RIMS 2.3
$end
$timescale
	1 ms
$end
$scope module RIMS $end
$var wire 1 *TMR TIMER_ISR $end
$var wire 1 *A0 A0 $end
$var wire 1 *A1 A1 $end
$var wire 1 *A2 A2 $end
$var wire 1 *A3 A3 $end
$var wire 1 *A4 A4 $end
$var wire 1 *A5 A5 $end
$var wire 1 *A6 A6 $end
$var wire 1 *A7 A7 $end
$var wire 1 *B0 B0 $end
$var wire 1 *B1 B1 $end
$var wire 1 *B2 B2 $end
$var wire 1 *B3 B3 $end
$var wire 1 *B4 B4 $end
$var wire 1 *B5 B5 $end
$var wire 1 *B6 B6 $end
$var wire 1 *B7 B7 $end
$upscope $end
$enddefinitions $end

#0
$dumpvars
b0 *TMR
b0 *A0
b0 *A1
b0 *A2
b0 *A3
b0 *A4
b0 *A5
b0 *A6
b0 *A7
b0 *B0
b0 *B1
b0 *B2
b0 *B3
b0 *B4
b0 *B5
b0 *B6
b0 *B7
$end
#521
b1 *TMR
#538
b0 *TMR
#1021
b1 *TMR
#1038
b0 *TMR
#1521
b1 *TMR
#1538
b0 *TMR
#2021
b1 *TMR
#2038
b0 *TMR
#2521
b1 *TMR
#2538
b0 *TMR
#3021
b1 *TMR
#3038
b0 *TMR
#3521
b1 *TMR
#3538
b0 *TMR
#4021
b1 *TMR
#4038
b0 *TMR
#4521
b1 *TMR
#4538
b0 *TMR
#4892
b1 *A0
#4892
b1 *A0
#5021
b1 *TMR
#5038
b0 *TMR
#5521
b1 *TMR
#5538
b0 *TMR
#6021
b1 *TMR
#6038
b0 *TMR
#6521
b1 *TMR
#6538
b0 *TMR
#7021
b1 *TMR
#7038
b0 *TMR
#7521
b1 *TMR
#7538
b0 *TMR
#8021
b1 *TMR
#8038
b0 *TMR
#8521
b1 *TMR
#8538
b0 *TMR
#9021
b1 *TMR
#9038
b0 *TMR
#9521
b1 *TMR
#9538
b0 *TMR
#10021
b1 *TMR
#10038
b0 *TMR
#10521
b1 *TMR
#10538
b0 *TMR
#11021
b1 *TMR
#11038
b0 *TMR
#11521
b1 *TMR
#11538
b0 *TMR
#12021
b1 *TMR
#12038
b0 *TMR
#12521
b1 *TMR
#12538
b0 *TMR
#13021
b1 *TMR
#13038
b0 *TMR
#13521
b1 *TMR
#13538
b0 *TMR
#14021
b1 *TMR
#14038
b0 *TMR
#14521
b1 *TMR
#14538
b0 *TMR
#15021
b1 *TMR
#15038
b0 *TMR
#15521
b1 *TMR
#15538
b0 *TMR
#16021
b1 *TMR
#16038
b0 *TMR
#16521
b1 *TMR
#16538
b0 *TMR
#17021
b1 *TMR
#17038
b0 *TMR
#17521
b1 *TMR
#17538
b0 *TMR
#18021
b1 *TMR
#18038
b0 *TMR
#18521
b1 *TMR
#18538
b0 *TMR
#19021
b1 *TMR
#19038
b0 *TMR
#19521
b1 *TMR
#19538
b0 *TMR
#20021
b1 *TMR
#20038
b0 *TMR
#20521
b1 *TMR
#20538
b0 *TMR
#21021
b1 *TMR
#21038
b0 *TMR
#21521
b1 *TMR
#21538
b0 *TMR
#22021
b1 *TMR
#22038
b0 *TMR
#22521
b1 *TMR
#22538
b0 *TMR
#23021
b1 *TMR
#23038
b0 *TMR
#23521
b1 *TMR
#23538
b0 *TMR
#24021
b1 *TMR
#24038
b0 *TMR
#24521
b1 *TMR
#24538
b0 *TMR
#25021
b1 *TMR
#25038
b0 *TMR
#25080
b1 *B0
#25521
b1 *TMR
#25538
b0 *TMR
#25572
b1 *B0
#26021
b1 *TMR
#26038
b0 *TMR
#26079
b0 *B0
#26521
b1 *TMR
#26538
b0 *TMR
#26571
b0 *B0
#27021
b1 *TMR
#27038
b0 *TMR
#27071
b0 *B0
#27521
b1 *TMR
#27538
b0 *TMR
#27571
b0 *B0
#28021
b1 *TMR
#28038
b0 *TMR
#28071
b0 *B0
#28521
b1 *TMR
#28538
b0 *TMR
#28571
b0 *B0
#29021
b1 *TMR
#29038
b0 *TMR
#29078
b1 *B0
#29521
b1 *TMR
#29538
b0 *TMR
#29572
b1 *B0
#30021
b1 *TMR
#30038
b0 *TMR
#30079
b0 *B0
#30521
b1 *TMR
#30538
b0 *TMR
#30571
b0 *B0
#31021
b1 *TMR
#31038
b0 *TMR
#31071
b0 *B0
#31521
b1 *TMR
#31538
b0 *TMR
#31571
b0 *B0
#32021
b1 *TMR
#32038
b0 *TMR
#32071
b0 *B0
#32521
b1 *TMR
#32538
b0 *TMR
#32571
b0 *B0
#33021
b1 *TMR
#33038
b0 *TMR
#33078
b1 *B0
#33521
b1 *TMR
#33538
b0 *TMR
#33572
b1 *B0
#34021
b1 *TMR
#34038
b0 *TMR
#34079
b0 *B0
#34521
b1 *TMR
#34538
b0 *TMR
#34571
b0 *B0
#35021
b1 *TMR
#35038
b0 *TMR
#35071
b0 *B0
#35521
b1 *TMR
#35538
b0 *TMR
#35571
b0 *B0
#36021
b1 *TMR
#36038
b0 *TMR
#36071
b0 *B0
#36521
b1 *TMR
#36538
b0 *TMR
#36571
b0 *B0
#37021
b1 *TMR
#37038
b0 *TMR
#37078
b1 *B0
#37477
b0 *A0
#37477
b0 *A0
#37521
b1 *TMR
#37538
b0 *TMR
#37570
b0 *B0
#38021
b1 *TMR
#38038
b0 *TMR
#38521
b1 *TMR
#38538
b0 *TMR
#39021
b1 *TMR
#39038
b0 *TMR
#39521
b1 *TMR
#39538
b0 *TMR
#39872
b1 *A0
#39872
b1 *A0
#40021
b1 *TMR
#40038
b0 *TMR
#40521
b1 *TMR
#40538
b0 *TMR
#41021
b1 *TMR
#41038
b0 *TMR
#41521
b1 *TMR
#41538
b0 *TMR
#42021
b1 *TMR
#42038
b0 *TMR
#42521
b1 *TMR
#42538
b0 *TMR
#43021
b1 *TMR
#43038
b0 *TMR
#43521
b1 *TMR
#43538
b0 *TMR
#44021
b1 *TMR
#44038
b0 *TMR
#44521
b1 *TMR
#44538
b0 *TMR
#45021
b1 *TMR
#45038
b0 *TMR
#45521
b1 *TMR
#45538
b0 *TMR
#46021
b1 *TMR
#46038
b0 *TMR
#46521
b1 *TMR
#46538
b0 *TMR
#47021
b1 *TMR
#47038
b0 *TMR
#47521
b1 *TMR
#47538
b0 *TMR
#48021
b1 *TMR
#48038
b0 *TMR
#48521
b1 *TMR
#48538
b0 *TMR
#49021
b1 *TMR
#49038
b0 *TMR
#49521
b1 *TMR
#49538
b0 *TMR
#50021
b1 *TMR
#50038
b0 *TMR
#50521
b1 *TMR
#50538
b0 *TMR
#51021
b1 *TMR
#51038
b0 *TMR
#51521
b1 *TMR
#51538
b0 *TMR
#52021
b1 *TMR
#52038
b0 *TMR
#52521
b1 *TMR
#52538
b0 *TMR
#53021
b1 *TMR
#53038
b0 *TMR
#53521
b1 *TMR
#53538
b0 *TMR
#54021
b1 *TMR
#54038
b0 *TMR
#54521
b1 *TMR
#54538
b0 *TMR
#55021
b1 *TMR
#55038
b0 *TMR
#55521
b1 *TMR
#55538
b0 *TMR
#56021
b1 *TMR
#56038
b0 *TMR
#56521
b1 *TMR
#56538
b0 *TMR
#57021
b1 *TMR
#57038
b0 *TMR
#57521
b1 *TMR
#57538
b0 *TMR
#58021
b1 *TMR
#58038
b0 *TMR
#58521
b1 *TMR
#58538
b0 *TMR
#59021
b1 *TMR
#59038
b0 *TMR
#59521
b1 *TMR
#59538
b0 *TMR
#60021
b1 *TMR
#60038
b0 *TMR
#60079
b1 *B0
#60521
b1 *TMR
#60538
b0 *TMR
#60571
b1 *B0
#61021
b1 *TMR
#61038
b0 *TMR
#61078
b0 *B0
#61521
b1 *TMR
#61538
b0 *TMR
#61570
b0 *B0
#62021
b1 *TMR
#62038
b0 *TMR
#62070
b0 *B0
#62521
b1 *TMR
#62538
b0 *TMR
#62570
b0 *B0
#63021
b1 *TMR
#63038
b0 *TMR
#63070
b0 *B0
#63521
b1 *TMR
#63538
b0 *TMR
#63570
b0 *B0
#64021
b1 *TMR
#64038
b0 *TMR
#64077
b1 *B0
#64521
b1 *TMR
#64538
b0 *TMR
#64571
b1 *B0
#65021
b1 *TMR
#65038
b0 *TMR
#65078
b0 *B0
#65521
b1 *TMR
#65538
b0 *TMR
#65570
b0 *B0
#66021
b1 *TMR
#66038
b0 *TMR
#66070
b0 *B0
#66521
b1 *TMR
#66538
b0 *TMR
#66570
b0 *B0
#67021
b1 *TMR
#67038
b0 *TMR
#67070
b0 *B0
#67521
b1 *TMR
#67538
b0 *TMR
#67570
b0 *B0
#68021
b1 *TMR
#68038
b0 *TMR
#68077
b1 *B0
#68465
b0 *A0
#68465
b0 *A0
#68521
b1 *TMR
#68538
b0 *TMR
#68569
b0 *B0
#69021
b1 *TMR
#69038
b0 *TMR
#69521
b1 *TMR
#69538
b0 *TMR
#70021
b1 *TMR
#70038
b0 *TMR
#70521
b1 *TMR
#521
b1 *TMR
#538
b0 *TMR
#1021
b1 *TMR
#1038
b0 *TMR
#1521
b1 *TMR
#1538
b0 *TMR
#2021
b1 *TMR
#2038
b0 *TMR
#2521
b1 *TMR
#2538
b0 *TMR
#3021
b1 *TMR
#3038
b0 *TMR
#3521
b1 *TMR
#3538
b0 *TMR
#4021
b1 *TMR
#4038
b0 *TMR
#4521
b1 *TMR
#4538
b0 *TMR
#4892
b1 *A0
#4892
b1 *A0
#5021
b1 *TMR
#5038
b0 *TMR
#5521
b1 *TMR
#5538
b0 *TMR
#6021
b1 *TMR
#6038
b0 *TMR
#6521
b1 *TMR
#6538
b0 *TMR
#7021
b1 *TMR
#7038
b0 *TMR
#7521
b1 *TMR
#7538
b0 *TMR
#8021
b1 *TMR
#8038
b0 *TMR
#8521
b1 *TMR
#8538
b0 *TMR
#9021
b1 *TMR
#9038
b0 *TMR
#9521
b1 *TMR
#9538
b0 *TMR
#10021
b1 *TMR
#10038
b0 *TMR
#10521
b1 *TMR
#10538
b0 *TMR
#11021
b1 *TMR
#11038
b0 *TMR
#11521
b1 *TMR
#11538
b0 *TMR
#12021
b1 *TMR
#12038
b0 *TMR
#12521
b1 *TMR
#12538
b0 *TMR
#13021
b1 *TMR
#13038
b0 *TMR
#13521
b1 *TMR
#13538
b0 *TMR
#14021
b1 *TMR
#14038
b0 *TMR
#14521
b1 *TMR
#14538
b0 *TMR
#15021
b1 *TMR
#15038
b0 *TMR
#15521
b1 *TMR
#15538
b0 *TMR
#16021
b1 *TMR
#16038
b0 *TMR
#16521
b1 *TMR
#16538
b0 *TMR
#17021
b1 *TMR
#17038
b0 *TMR
#17521
b1 *TMR
#17538
b0 *TMR
#18021
b1 *TMR
#18038
b0 *TMR
#18521
b1 *TMR
#18538
b0 *TMR
#19021
b1 *TMR
#19038
b0 *TMR
#19521
b1 *TMR
#19538
b0 *TMR
#20021
b1 *TMR
#20038
b0 *TMR
#20521
b1 *TMR
#20538
b0 *TMR
#21021
b1 *TMR
#21038
b0 *TMR
#21521
b1 *TMR
#21538
b0 *TMR
#22021
b1 *TMR
#22038
b0 *TMR
#22521
b1 *TMR
#22538
b0 *TMR
#23021
b1 *TMR
#23038
b0 *TMR
#23521
b1 *TMR
#23538
b0 *TMR
#24021
b1 *TMR
#24038
b0 *TMR
#24521
b1 *TMR
#24538
b0 *TMR
#25021
b1 *TMR
#25038
b0 *TMR
#25080
b1 *B0
#25521
b1 *TMR
#25538
b0 *TMR
#25572
b1 *B0
#26021
b1 *TMR
#26038
b0 *TMR
#26079
b0 *B0
#26521
b1 *TMR
#26538
b0 *TMR
#26571
b0 *B0
#27021
b1 *TMR
#27038
b0 *TMR
#27071
b0 *B0
#27521
b1 *TMR
#27538
b0 *TMR
#27571
b0 *B0
#28021
b1 *TMR
#28038
b0 *TMR
#28071
b0 *B0
#28521
b1 *TMR
#28538
b0 *TMR
#28571
b0 *B0
#29021
b1 *TMR
#29038
b0 *TMR
#29078
b1 *B0
#29521
b1 *TMR
#29538
b0 *TMR
#29572
b1 *B0
#30021
b1 *TMR
#30038
b0 *TMR
#30079
b0 *B0
#30521
b1 *TMR
#30538
b0 *TMR
#30571
b0 *B0
#31021
b1 *TMR
#31038
b0 *TMR
#31071
b0 *B0
#31521
b1 *TMR
#31538
b0 *TMR
#31571
b0 *B0
#32021
b1 *TMR
#32038
b0 *TMR
#32071
b0 *B0
#32521
b1 *TMR
#32538
b0 *TMR
#32571
b0 *B0
#33021
b1 *TMR
#33038
b0 *TMR
#33078
b1 *B0
#33521
b1 *TMR
#33538
b0 *TMR
#33572
b1 *B0
#34021
b1 *TMR
#34038
b0 *TMR
#34079
b0 *B0
#34521
b1 *TMR
#34538
b0 *TMR
#34571
b0 *B0
#35021
b1 *TMR
#35038
b0 *TMR
#35071
b0 *B0
#35521
b1 *TMR
#35538
b0 *TMR
#35571
b0 *B0
#36021
b1 *TMR
#36038
b0 *TMR
#36071
b0 *B0
#36521
b1 *TMR
#36538
b0 *TMR
#36571
b0 *B0
#37021
b1 *TMR
#37038
b0 *TMR
#37078
b1 *B0
#37477
b0 *A0
#37477
b0 *A0
#37521
b1 *TMR
#37538
b0 *TMR
#37570
b0 *B0
#38021
b1 *TMR
#38038
b0 *TMR
#38521
b1 *TMR
#38538
b0 *TMR
#39021
b1 *TMR
#39038
b0 *TMR
#39521
b1 *TMR
#39538
b0 *TMR
#39872
b1 *A0
#39872
b1 *A0
#40021
b1 *TMR
#40038
b0 *TMR
#40521
b1 *TMR
#40538
b0 *TMR
#41021
b1 *TMR
#41038
b0 *TMR
#41521
b1 *TMR
#41538
b0 *TMR
#42021
b1 *TMR
#42038
b0 *TMR
#42521
b1 *TMR
#42538
b0 *TMR
#43021
b1 *TMR
#43038
b0 *TMR
#43521
b1 *TMR
#43538
b0 *TMR
#44021
b1 *TMR
#44038
b0 *TMR
#44521
b1 *TMR
#44538
b0 *TMR
#45021
b1 *TMR
#45038
b0 *TMR
#45521
b1 *TMR
#45538
b0 *TMR
#46021
b1 *TMR
#46038
b0 *TMR
#46521
b1 *TMR
#46538
b0 *TMR
#47021
b1 *TMR
#47038
b0 *TMR
#47521
b1 *TMR
#47538
b0 *TMR
#48021
b1 *TMR
#48038
b0 *TMR
#48521
b1 *TMR
#48538
b0 *TMR
#49021
b1 *TMR
#49038
b0 *TMR
#49521
b1 *TMR
#49538
b0 *TMR
#50021
b1 *TMR
#50038
b0 *TMR
#50521
b1 *TMR
#50538
b0 *TMR
#51021
b1 *TMR
#51038
b0 *TMR
#51521
b1 *TMR
#51538
b0 *TMR
#52021
b1 *TMR
#52038
b0 *TMR
#52521
b1 *TMR
#52538
b0 *TMR
#53021
b1 *TMR
#53038
b0 *TMR
#53521
b1 *TMR
#53538
b0 *TMR
#54021
b1 *TMR
#54038
b0 *TMR
#54521
b1 *TMR
#54538
b0 *TMR
#55021
b1 *TMR
#55038
b0 *TMR
#55521
b1 *TMR
#55538
b0 *TMR
#56021
b1 *TMR
#56038
b0 *TMR
#56521
b1 *TMR
#56538
b0 *TMR
#57021
b1 *TMR
#57038
b0 *TMR
#57521
b1 *TMR
#57538
b0 *TMR
#58021
b1 *TMR
#58038
b0 *TMR
#58521
b1 *TMR
#58538
b0 *TMR
#59021
b1 *TMR
#59038
b0 *TMR
#59521
b1 *TMR
#59538
b0 *TMR
#60021
b1 *TMR
#60038
b0 *TMR
#60079
b1 *B0
#60521
b1 *TMR
#60538
b0 *TMR
#60571
b1 *B0
#61021
b1 *TMR
#61038
b0 *TMR
#61078
b0 *B0
#61521
b1 *TMR
#61538
b0 *TMR
#61570
b0 *B0
#62021
b1 *TMR
#62038
b0 *TMR
#62070
b0 *B0
#62521
b1 *TMR
#62538
b0 *TMR
#62570
b0 *B0
#63021
b1 *TMR
#63038
b0 *TMR
#63070
b0 *B0
#63521
b1 *TMR
#63538
b0 *TMR
#63570
b0 *B0
#64021
b1 *TMR
#64038
b0 *TMR
#64077
b1 *B0
#64521
b1 *TMR
#64538
b0 *TMR
#64571
b1 *B0
#65021
b1 *TMR
#65038
b0 *TMR
#65078
b0 *B0
#65521
b1 *TMR
#65538
b0 *TMR
#65570
b0 *B0
#66021
b1 *TMR
#66038
b0 *TMR
#66070
b0 *B0
#66521
b1 *TMR
#66538
b0 *TMR
#66570
b0 *B0
#67021
b1 *TMR
#67038
b0 *TMR
#67070
b0 *B0
#67521
b1 *TMR
#67538
b0 *TMR
#67570
b0 *B0
#68021
b1 *TMR
#68038
b0 *TMR
#68077
b1 *B0
#68465
b0 *A0
#68465
b0 *A0
#68521
b1 *TMR
#68538
b0 *TMR
#68569
b0 *B0
#69021
b1 *TMR
#69038
b0 *TMR
#69521
b1 *TMR
#69538
b0 *TMR
#70021
b1 *TMR
#70038
b0 *TMR
#70521
b1 *TMR
